Mini Project 1 – Math Stat Blog
…
[1] 7.0309

nsim <- 5000      # number of simulations

## code to map through the function. 
## the \(i) syntax says to just repeat the generate_samp_mean function
## nsim times
mins <- map_dbl(1:nsim, \(i) generate_samp_min(mu = mu, sigma = sigma, n = n))

## print some of the 5000 means
## each number represents the sample mean from __one__ sample.
mins_df <- tibble(mins)
mins_df

# A tibble: 5,000 × 1
    mins
   <dbl>
 1  6.85
 2  9.24
 3  6.74
 4  5.31
 5  9.58
 6  7.65
 7 10.2 
 8  7.03
 9  6.40
10  7.93
# ℹ 4,990 more rows
…
[1] 13.62979

nsim <- 5000      # number of simulations

## code to map through the function. 
## the \(i) syntax says to just repeat the generate_samp_mean function
## nsim times
maxs <- map_dbl(1:nsim, \(i) generate_samp_max(mu = mu, sigma = sigma, n = n))

## print some of the 5000 means
## each number represents the sample mean from __one__ sample.
maxs_df <- tibble(maxs)
maxs_df

# A tibble: 5,000 × 1
    maxs
   <dbl>
 1 10.7 
 2 13.9 
 3 11.5 
 4  8.46
 5 12.5 
 6 12.1 
 7 11.3 
 8  9.93
 9 11.5 
10 11.8 
# ℹ 4,990 more rows
…
[1] 7.665332

nsim <- 5000      # number of simulations

## code to map through the function. 
## the \(i) syntax says to just repeat the generate_samp_mean function
## nsim times
mins1 <- map_dbl(1:nsim, \(i) generate_samp_min1(theta1 = theta1, theta2 = theta2, n = n))

## print some of the 5000 means
## each number represents the sample mean from __one__ sample.
mins_df1 <- tibble(mins1)
mins_df1

# A tibble: 5,000 × 1
   mins1
   <dbl>
 1  8.01
 2  7.87
 3  7.80
 4  7.22
 5  9.20
 6  8.10
 7  9.02
 8  7.89
 9  7.15
10  7.79
# ℹ 4,990 more rows
…
[1] 12.56424

nsim <- 5000      # number of simulations

## code to map through the function. 
## the \(i) syntax says to just repeat the generate_samp_mean function
## nsim times
maxs1 <- map_dbl(1:nsim, \(i) generate_samp_max1(theta1 = theta1, theta2 = theta2, n = n))

## print some of the 5000 means
## each number represents the sample mean from __one__ sample.
maxs_df1 <- tibble(maxs1)
maxs_df1

# A tibble: 5,000 × 1
   maxs1
   <dbl>
 1  9.38
 2 12.8 
 3 12.9 
 4 11.5 
 5 11.8 
 6 12.1 
 7 12.7 
 8 11.3 
 9 10.3 
10 12.3 
# ℹ 4,990 more rows
…
[1] 0.1351427

#> [1] 3.915946

nsim <- 5000      # number of simulations

mins2 <- map_dbl(1:nsim, \(i) generate_exp_min2(lambda = lambda, n = n))

## print some of the 5000 means
## each number represents the sample mean from __one__ sample.
mins_df2 <- tibble(mins2)
mins_df2

# A tibble: 5,000 × 1
     mins2
     <dbl>
 1 0.597  
 2 0.00459
 3 0.717  
 4 0.551  
 5 0.0879 
 6 0.271  
 7 0.0106 
 8 0.412  
 9 0.00550
10 0.756  
# ℹ 4,990 more rows
…
[1] 3.455534

#> [1] 3.915946

nsim <- 5000      # number of simulations

maxs2 <- map_dbl(1:nsim, \(i) generate_exp_max2(lambda = lambda, n = n))

## print some of the 5000 means
## each number represents the sample mean from __one__ sample.
maxs_df2 <- tibble(maxs2)
maxs_df2

# A tibble: 5,000 × 1
   maxs2
   <dbl>
 1  3.68
 2  1.42
 3  3.60
 4  5.43
 5  5.30
 6  4.68
 7  2.56
 8  3.13
 9  2.14
10  4.47
# ℹ 4,990 more rows
…
[1] 0.5883812

#> [1] 3.915946

nsim <- 5000      # number of simulations

mins3 <- map_dbl(1:nsim, \(i) generate_sample_min3(alpha = alpha, beta = beta, n = n))

## print some of the 5000 means
## each number represents the sample mean from __one__ sample.
mins_df3 <- tibble(mins3)
mins_df3

# A tibble: 5,000 × 1
   mins3
   <dbl>
 1 0.778
 2 0.588
 3 0.636
 4 0.719
 5 0.604
 6 0.591
 7 0.664
 8 0.634
 9 0.689
10 0.601
# ℹ 4,990 more rows
…
[1] 0.9220206

#> [1] 3.915946

nsim <- 5000      # number of simulations

maxs3 <- map_dbl(1:nsim, \(i) generate_sample_max3(alpha = alpha, beta = beta, n = n))

## print some of the 5000 means
## each number represents the sample mean from __one__ sample.
maxs_df3 <- tibble(maxs3)
maxs_df3

# A tibble: 5,000 × 1
   maxs3
   <dbl>
 1 0.901
 2 0.959
 3 0.871
 4 0.986
 5 0.960
 6 0.979
 7 0.910
 8 0.911
 9 0.929
10 0.977
# ℹ 4,990 more rows
…
