Mini Project 3 – Math Stat Blog
…
# A tibble: 1 × 3
   phat    lb    ub
  <dbl> <dbl> <dbl>
1 0.434 0.408 0.460

## how many CI's do we want
n_sim <- 5000

prop_ci_df <- map(1:n_sim, 
    \(i) generate_samp_prop(n = 1000, p = 0.45)) |>
  bind_rows()

prop_ci_df

# A tibble: 5,000 × 3
    phat    lb    ub
   <dbl> <dbl> <dbl>
 1 0.445 0.419 0.471
 2 0.473 0.447 0.499
 3 0.429 0.403 0.455
 4 0.437 0.411 0.463
 5 0.461 0.435 0.487
 6 0.449 0.423 0.475
 7 0.466 0.440 0.492
 8 0.451 0.425 0.477
 9 0.442 0.416 0.468
10 0.468 0.442 0.494
# ℹ 4,990 more rows
…
# A tibble: 1 × 3
   phat    lb    ub
  <dbl> <dbl> <dbl>
1 0.893 0.877 0.909

## how many CI's do we want
n_sim <- 5000

prop_ci_df1 <- map(1:n_sim, 
    \(i) generate_samp_prop(n = 1000, p = 0.9)) |>
  bind_rows()

prop_ci_df1

# A tibble: 5,000 × 3
    phat    lb    ub
   <dbl> <dbl> <dbl>
 1 0.889 0.873 0.905
 2 0.882 0.865 0.899
 3 0.904 0.889 0.919
 4 0.894 0.878 0.910
 5 0.901 0.885 0.917
 6 0.9   0.884 0.916
 7 0.899 0.883 0.915
 8 0.884 0.867 0.901
 9 0.899 0.883 0.915
10 0.896 0.880 0.912
# ℹ 4,990 more rows
…
# A tibble: 1 × 3
   phat    lb    ub
  <dbl> <dbl> <dbl>
1   0.5 0.418 0.582

## how many CI's do we want
n_sim <- 5000

prop_ci_df2 <- map(1:n_sim, 
    \(i) generate_samp_prop(n = 100, p = 0.45)) |>
  bind_rows()

prop_ci_df2

# A tibble: 5,000 × 3
    phat    lb    ub
   <dbl> <dbl> <dbl>
 1  0.46 0.378 0.542
 2  0.48 0.398 0.562
 3  0.39 0.310 0.470
 4  0.38 0.300 0.460
 5  0.41 0.329 0.491
 6  0.48 0.398 0.562
 7  0.4  0.319 0.481
 8  0.45 0.368 0.532
 9  0.47 0.388 0.552
10  0.44 0.358 0.522
# ℹ 4,990 more rows
…
# A tibble: 1 × 3
   phat    lb    ub
  <dbl> <dbl> <dbl>
1  0.89 0.839 0.941

## how many CI's do we want
n_sim <- 5000

prop_ci_df3 <- map(1:n_sim, 
    \(i) generate_samp_prop(n = 100, p = 0.9)) |>
  bind_rows()

prop_ci_df3

# A tibble: 5,000 × 3
    phat    lb    ub
   <dbl> <dbl> <dbl>
 1  0.84 0.780 0.900
 2  0.89 0.839 0.941
 3  0.91 0.863 0.957
 4  0.92 0.875 0.965
 5  0.89 0.839 0.941
 6  0.86 0.803 0.917
 7  0.93 0.888 0.972
 8  0.88 0.827 0.933
 9  0.89 0.839 0.941
10  0.92 0.875 0.965
# ℹ 4,990 more rows
…
# A tibble: 1 × 3
   phat    lb    ub
  <dbl> <dbl> <dbl>
1   0.5 0.240 0.760

## how many CI's do we want
n_sim <- 5000

prop_ci_df4 <- map(1:n_sim, 
    \(i) generate_samp_prop(n = 10, p = 0.45)) |>
  bind_rows()

prop_ci_df4

# A tibble: 5,000 × 3
    phat       lb    ub
   <dbl>    <dbl> <dbl>
 1   0.2 -0.00808 0.408
 2   0.4  0.145   0.655
 3   0.3  0.0616  0.538
 4   0.5  0.240   0.760
 5   0.4  0.145   0.655
 6   0.4  0.145   0.655
 7   0.5  0.240   0.760
 8   0.6  0.345   0.855
 9   0.5  0.240   0.760
10   0.4  0.145   0.655
# ℹ 4,990 more rows
…
# A tibble: 1 × 3
   phat    lb    ub
  <dbl> <dbl> <dbl>
1   0.8 0.592  1.01

## how many CI's do we want
n_sim <- 5000

prop_ci_df5 <- map(1:n_sim, 
    \(i) generate_samp_prop(n = 10, p = 0.9)) |>
  bind_rows()

prop_ci_df5

# A tibble: 5,000 × 3
    phat    lb    ub
   <dbl> <dbl> <dbl>
 1   0.6 0.345 0.855
 2   0.9 0.744 1.06 
 3   1   1     1    
 4   1   1     1    
 5   1   1     1    
 6   0.9 0.744 1.06 
 7   0.9 0.744 1.06 
 8   0.9 0.744 1.06 
 9   0.6 0.345 0.855
10   1   1     1    
# ℹ 4,990 more rows
…
