Mini Project 4 – Math Stat Blog
…
target_mean <- 0.697

alphas <- seq(0.1, 100, length.out = 500)
betas <- 0.303 * alphas / 0.697

param_df <- tibble(alphas, betas)
param_df <- param_df |> mutate(vars = 
                    (alphas * betas) / ((alphas + betas)^2 * (alphas + betas + 1)))

target_var <- 0.05657 ^2

param_df <- param_df |> mutate(dist_to_target = abs(vars - target_var))
param_df

# A tibble: 500 × 4
   alphas  betas   vars dist_to_target
    <dbl>  <dbl>  <dbl>          <dbl>
 1  0.1   0.0435 0.185          0.181 
 2  0.300 0.131  0.148          0.144 
 3  0.500 0.218  0.123          0.120 
 4  0.701 0.305  0.105          0.102 
 5  0.901 0.392  0.0921         0.0889
 6  1.10  0.479  0.0819         0.0787
 7  1.30  0.566  0.0737         0.0705
 8  1.50  0.653  0.0670         0.0638
 9  1.70  0.740  0.0614         0.0582
10  1.90  0.827  0.0566         0.0534
# ℹ 490 more rows
…
target_mean <- 0.75

alphas <- seq(0.1, 100, length.out = 500)
betas <- 0.25 * alphas / 0.75

param_df <- tibble(alphas, betas)
param_df <- param_df |> mutate(vars = 
                    (alphas * betas) / ((alphas + betas)^2 * (alphas + betas + 1)))

target_var <- 0.05 ^2

param_df <- param_df |> mutate(dist_to_target = abs(vars - target_var))
param_df

# A tibble: 500 × 4
   alphas  betas   vars dist_to_target
    <dbl>  <dbl>  <dbl>          <dbl>
 1  0.1   0.0333 0.165          0.163 
 2  0.300 0.100  0.134          0.131 
 3  0.500 0.167  0.112          0.110 
 4  0.701 0.234  0.0969         0.0944
 5  0.901 0.300  0.0852         0.0827
 6  1.10  0.367  0.0760         0.0735
 7  1.30  0.434  0.0686         0.0661
 8  1.50  0.500  0.0625         0.0600
 9  1.70  0.567  0.0574         0.0549
10  1.90  0.634  0.0530         0.0505
# ℹ 490 more rows
…
